/dataset/positive/12eeb416d4132da1f3a81f9a5979854d45cad94b_jpeg.rf.20061f7979475ec10db12b851f90ba3e.jpg 271 40 394 297

/dataset/positive/247181_jpg.rf.634122d97b1928c06d5a94a4fc51e63d.jpg 262 35 383 288

/dataset/positive/images-1-_jpeg.rf.465f502035bf87da1be6b57836d5530b.jpg 281 11 381 238

/dataset/positive/36-Lionel-Messi-1200x834_jpg.rf.06d959c90a07644e5452a112a05d81d6.jpg 258 6 390 298

/dataset/positive/2020-12-19T163244Z_41429946_UP1EGCJ19YKHH_RTRMADP_3_SOCCER-SPAIN-FCB-VAL-REPORT_jpg.rf.302fc3a3f802c7df3cbae51f80e250e2.jpg 258 20 342 184

/dataset/positive/images_jpeg.rf.29c4b9ac20f90a455df2670ab846ddd5.jpg 260 13 383 287

/dataset/positive/images_jpeg.rf.25bc24e14f3dc14738c65f9952ed2ec5.jpg 260 13 383 287

/dataset/positive/2020-12-19T163244Z_41429946_UP1EGCJ19YKHH_RTRMADP_3_SOCCER-SPAIN-FCB-VAL-REPORT_jpg.rf.4201bf13917fcd74d85713f5b56ed1dd.jpg 258 20 342 184

/dataset/positive/16onsoccerweb-2-videoSixteenByNine3000_jpg.rf.c67060598cbcfa1405c4d63fa168667a.jpg 227 139 397 456

/dataset/positive/247181_jpg.rf.78a26f51522fe9db63a17bcdc7e2eb65.jpg 262 35 383 288

/dataset/positive/220530124443-02-paris-saint-germain-lionel-messi-052122-restricted_jpg.rf.08d60cfa3b8d529c65d429c085a2da1b.jpg 108 85 504 349

/dataset/positive/images_jpeg.rf.6df7ec8155a295c05018fb4779511955.jpg 260 13 383 287

/dataset/positive/220530124443-02-paris-saint-germain-lionel-messi-052122-restricted_jpg.rf.3549f9a661d10d407707bdd708b639eb.jpg 108 85 504 349

/dataset/positive/220530124443-02-paris-saint-germain-lionel-messi-052122-restricted_jpg.rf.e098f086fec5d7b2ad47e29c1914894b.jpg 108 85 504 349

/dataset/positive/210201103122-lionel-messi-barcelona_jpg.rf.adc76eaeb8cd3bad4fe8b90c4cefa5f1.jpg 199 20 423 211

/dataset/positive/images_jpeg.rf.43d39675d3c4fef20cda07cefbd74f67.jpg 252 20 414 286

/dataset/positive/images_jpeg.rf.f382f212cb3d4c9f697a13c3fc8b68c5.jpg 252 20 414 286

/dataset/positive/36-Lionel-Messi-1200x834_jpg.rf.fd198d4d340425d6fec31682b59edcba.jpg 258 6 390 298

/dataset/positive/210201103122-lionel-messi-barcelona_jpg.rf.e092ca1a2eebb7eb01da4dc0f195eea4.jpg 199 20 423 211

/dataset/positive/36-Lionel-Messi-1200x834_jpg.rf.47018eb7d12db77d9c566a3c6b665cc7.jpg 258 6 390 298

/dataset/positive/images_jpeg.rf.9a24dd5d1381c232adf827358d0de522.jpg 252 20 414 286

/dataset/positive/images-1-_jpeg.rf.7904ab4f3e8c3ab2d5ffcafdab4ac758.jpg 281 11 381 238

/dataset/positive/2020-12-19T163244Z_41429946_UP1EGCJ19YKHH_RTRMADP_3_SOCCER-SPAIN-FCB-VAL-REPORT_jpg.rf.faac828b58a1f685db0f36556427c5ed.jpg 258 20 342 184

/dataset/positive/16onsoccerweb-2-videoSixteenByNine3000_jpg.rf.53871abafe71fff26d8e898e8e7525fd.jpg 227 139 397 456

/dataset/positive/247181_jpg.rf.1c20a46c051595f10d00d883c14eb54f.jpg 262 35 383 288

/dataset/positive/210201103122-lionel-messi-barcelona_jpg.rf.49c87882f63aa4b2a1c3db89349c05ba.jpg 199 20 423 211

/dataset/positive/16onsoccerweb-2-videoSixteenByNine3000_jpg.rf.47dc94b9849127fc2dfc9c56c7ff217e.jpg 227 139 397 456

/dataset/positive/12eeb416d4132da1f3a81f9a5979854d45cad94b_jpeg.rf.b9d68f3962b42e664eb5863cb52c2592.jpg 271 40 394 297

